Analisis Pengaruh Harga dan Nilai tukar terhadap Ekspor Kayu Manis Indonesia ke Amerika Serikat.
…
\[Y = α + β1X1 + β2X2 + β3X3 + e\]

Keterangan: - \(Y\) = Variabel terikat atau variabel respons (volume ekspor kayu manis) - \(X1\), \(X2\), \(X3\) = Variabel bebas atau variabel prediktor (nilai tukar, harga jual, total produksi kayu manis dalam negeri) - \(α\) = Konstanta - \(β1\), \(β2\), \(β3\) = Slope atau koefisien estimasi - \(e\) = error

0.4 Pembahasan

0.4.1 Pembahasan masalah

0.4.1.1 Plot dan Data

#impor dataset
read_excel("kayu.xlsx")

# A tibble: 23 × 5
   tahun   volt harga  kurs  prodt
   <dbl>  <dbl> <dbl> <dbl>  <dbl>
 1  2000 13698   6189  9595 45237 
 2  2001 14134.  5564 10400 40635 
 3  2002 14583.  4962  8940 42846.
 4  2003 15047.  4842  8465 45176.
 5  2004 15525.  5444  9290 47634.
 6  2005 16019.  5475  9830 50225.
 7  2006 16528.  6197  9020 52957.
 8  2007 17054.  7761  9419 55838.
 9  2008 17596.  9625 10950 58876.
10  2009 18156.  8366  9400 62079.
# ℹ 13 more rows
…
